{
  "objectType" : "PageObjectModel",
  "id" : "r942146q5gxx",
  "title" : "ssffs",
  "description" : null,
  "objectType" : "PageObjectModel",
  "tags" : null,
  "objectList" : [ {
    "id" : "519a82e8-5bf4-435c-94fa-88d545227943",
    "title" : "New ssffs object",
    "objectType" : null,
    "testObjects" : [ {
      "type" : "raw",
      "object" : "",
      "pageScannerQuery" : null,
      "pageObjectReference" : null
    } ],
    "index" : "1",
    "foreignKey" : null
  } ],
  "actionList" : [ ],
  "foreignKey" : null
}