{
  "objectType" : "DataDrivenStorage",
  "id" : "3p2ppeq1oepp",
  "title" : "Opdracht 3b",
  "description" : null,
  "objectType" : null,
  "variableRunDataList" : [ {
    "active" : true,
    "data" : [ {
      "key" : "data_number1",
      "value" : "3"
    }, {
      "key" : "data_number2",
      "value" : "5"
    }, {
      "key" : "data_result",
      "value" : "8"
    }, {
      "key" : "data_operator",
      "value" : "plus"
    } ],
    "name" : "test case 1"
  }, {
    "active" : true,
    "data" : [ {
      "key" : "data_number1",
      "value" : "10"
    }, {
      "key" : "data_number2",
      "value" : "5"
    }, {
      "key" : "data_result",
      "value" : "15"
    }, {
      "key" : "data_operator",
      "value" : "plus"
    } ],
    "name" : "test case 2"
  }, {
    "active" : true,
    "data" : [ {
      "key" : "data_number1",
      "value" : "10"
    }, {
      "key" : "data_number2",
      "value" : "5"
    }, {
      "key" : "data_result",
      "value" : "5"
    }, {
      "key" : "data_operator",
      "value" : "min"
    } ],
    "name" : "test case 3"
  }, {
    "active" : true,
    "data" : [ {
      "key" : "data_number1",
      "value" : "10"
    }, {
      "key" : "data_number2",
      "value" : "5"
    }, {
      "key" : "data_result",
      "value" : "50"
    }, {
      "key" : "data_operator",
      "value" : "keer"
    } ],
    "name" : "test case 4"
  }, {
    "active" : true,
    "data" : [ {
      "key" : "data_number1",
      "value" : "10"
    }, {
      "key" : "data_number2",
      "value" : "5"
    }, {
      "key" : "data_result",
      "value" : "2"
    }, {
      "key" : "data_operator",
      "value" : "gedeeld"
    } ],
    "name" : "test case 45"
  } ],
  "type" : "DATA_DRIVEN"
}