{
  "apiType" : null,
  "description" : "## Authentication\n\nBasic Authentication is required for all requests.",
  "definitionUrl" : "https://valori-dev.outsystemscloud.com/ValoriCalculator_ws/rest/CalculatorAPI/swagger.json",
  "schemes" : [ "https" ],
  "activeScheme" : "https",
  "baseUrl" : "valori-dev.outsystemscloud.com",
  "basePath" : "/ValoriCalculator_ws/rest/CalculatorAPI",
  "authentication" : null,
  "tags" : [ "CalculatorAPI" ],
  "id" : "k3ro1995ee12",
  "title" : "CalculatorAPI2",
  "objectType" : null
}