{
  "objectType" : "DataDrivenStorage",
  "id" : "5r3erpyy72p1",
  "title" : "testetete",
  "description" : null,
  "objectType" : null,
  "variableRunDataList" : [ {
    "active" : true,
    "data" : [ ],
    "name" : "test case 1"
  }, {
    "active" : true,
    "data" : [ ],
    "name" : "test case 2"
  }, {
    "active" : true,
    "data" : [ ],
    "name" : "test case 3"
  } ],
  "type" : "DATA_DRIVEN"
}