{
  "objectType" : "DataDrivenStorage",
  "id" : "r3133e48e2qo",
  "title" : "Opdracht 3a",
  "description" : null,
  "objectType" : null,
  "variableRunDataList" : [ {
    "active" : true,
    "data" : [ {
      "key" : "data_number1",
      "value" : "3"
    }, {
      "key" : "data_number2",
      "value" : "5"
    }, {
      "key" : "data_result",
      "value" : "8"
    } ],
    "name" : "test case 1"
  }, {
    "active" : true,
    "data" : [ {
      "key" : "data_number1",
      "value" : "10"
    }, {
      "key" : "data_number2",
      "value" : "5"
    }, {
      "key" : "data_result",
      "value" : "15"
    } ],
    "name" : "test case 2"
  } ],
  "type" : "DATA_DRIVEN"
}