{
  "objectType" : "PageObjectModel",
  "id" : "q741333qrqx2",
  "title" : "ValoriCalculator",
  "description" : null,
  "objectType" : "PageObjectModel",
  "tags" : null,
  "objectList" : [ {
    "id" : "5b876775-aacb-439d-962b-8d8c28f01d0b",
    "title" : "input_Number2",
    "objectType" : null,
    "testObjects" : [ {
      "type" : "raw",
      "object" : "id=inp_Number2",
      "pageScannerQuery" : null,
      "pageObjectReference" : null
    } ],
    "index" : "1",
    "foreignKey" : null
  }, {
    "id" : "ce787845-58fa-4d27-9538-61597b0c813f",
    "title" : "button_Plus",
    "objectType" : null,
    "testObjects" : [ {
      "type" : "raw",
      "object" : "id=btn_Plus",
      "pageScannerQuery" : null,
      "pageObjectReference" : null
    } ],
    "index" : "1",
    "foreignKey" : null
  }, {
    "id" : "2c06465a-7099-440e-8885-2921b6d2e2db",
    "title" : "button_Min",
    "objectType" : null,
    "testObjects" : [ {
      "type" : "raw",
      "object" : "id=btn_Minus",
      "pageScannerQuery" : null,
      "pageObjectReference" : null
    } ],
    "index" : "1",
    "foreignKey" : null
  }, {
    "id" : "92e0fa59-48cc-47da-ac12-768bb5a30762",
    "title" : "button_Multiply",
    "objectType" : null,
    "testObjects" : [ {
      "type" : "raw",
      "object" : "id=btn_Multiply",
      "pageScannerQuery" : null,
      "pageObjectReference" : null
    } ],
    "index" : "1",
    "foreignKey" : null
  }, {
    "id" : "d2d1dcda-c9e8-41e6-8976-fc1edc2b15db",
    "title" : "button_Divide",
    "objectType" : null,
    "testObjects" : [ {
      "type" : "raw",
      "object" : "id=btn_Devide",
      "pageScannerQuery" : null,
      "pageObjectReference" : null
    } ],
    "index" : "1",
    "foreignKey" : null
  }, {
    "id" : "548a3101-63c2-410d-8e75-e87c7bc20309",
    "title" : "input_Number1",
    "objectType" : null,
    "testObjects" : [ {
      "type" : "raw",
      "object" : "id=inp_Number1",
      "pageScannerQuery" : null,
      "pageObjectReference" : null
    } ],
    "index" : "1",
    "foreignKey" : null
  } ],
  "actionList" : [ {
    "id" : "1d1c54b4-ea29-4ca8-b89d-0389d8759748",
    "title" : "Optellen",
    "variableList" : [ {
      "id" : "4596825c-5ab3-4afc-9481-2298f91baf12",
      "name" : "number1",
      "allowedOptions" : [ ],
      "type" : "TEXT"
    }, {
      "id" : "83898dff-8182-4a3f-91f0-e465eb1d11ed",
      "name" : "number2",
      "allowedOptions" : [ ],
      "type" : "TEXT"
    } ],
    "steps" : [ {
      "version" : "3.0.4",
      "result" : null,
      "message" : null,
      "executionTimeMs" : 0,
      "databaseAction" : null,
      "webAction" : {
        "actionName" : "Keyboard",
        "subAction" : "Type text",
        "options" : [ {
          "name" : "Clear field",
          "value" : true
        }, {
          "name" : "Interval between keystrokes",
          "value" : 1
        } ],
        "object" : {
          "type" : "pageObjectReference",
          "object" : "",
          "pageScannerQuery" : null,
          "pageObjectReference" : {
            "pageId" : "q741333qrqx2",
            "objectId" : "548a3101-63c2-410d-8e75-e87c7bc20309"
          }
        },
        "testdata" : {
          "data" : "${number1}",
          "type" : "text"
        },
        "takeScreenshot" : "0",
        "screenshot" : null
      },
      "apiAction" : null,
      "pageActionReference" : null,
      "dataSheetReference" : null,
      "testStepGroup" : null,
      "contextId" : null,
      "hasBreakpoint" : false,
      "isDisabled" : false
    }, {
      "version" : "3.0.4",
      "result" : null,
      "message" : null,
      "executionTimeMs" : 0,
      "databaseAction" : null,
      "webAction" : {
        "actionName" : "Keyboard",
        "subAction" : "Type text",
        "options" : [ {
          "name" : "Clear field",
          "value" : true
        }, {
          "name" : "Interval between keystrokes",
          "value" : 1
        } ],
        "object" : {
          "type" : "pageObjectReference",
          "object" : "",
          "pageScannerQuery" : null,
          "pageObjectReference" : {
            "pageId" : "q741333qrqx2",
            "objectId" : "5b876775-aacb-439d-962b-8d8c28f01d0b"
          }
        },
        "testdata" : {
          "data" : "${number2}",
          "type" : "text"
        },
        "takeScreenshot" : "0",
        "screenshot" : null
      },
      "apiAction" : null,
      "pageActionReference" : null,
      "dataSheetReference" : null,
      "testStepGroup" : null,
      "contextId" : null,
      "hasBreakpoint" : false,
      "isDisabled" : false
    }, {
      "version" : "3.0.4",
      "result" : null,
      "message" : null,
      "executionTimeMs" : 0,
      "databaseAction" : null,
      "webAction" : {
        "actionName" : "Mouse",
        "subAction" : "Click",
        "options" : [ ],
        "object" : {
          "type" : "pageObjectReference",
          "object" : "",
          "pageScannerQuery" : null,
          "pageObjectReference" : {
            "pageId" : "q741333qrqx2",
            "objectId" : "ce787845-58fa-4d27-9538-61597b0c813f"
          }
        },
        "testdata" : {
          "data" : "",
          "type" : "text"
        },
        "takeScreenshot" : "0",
        "screenshot" : null
      },
      "apiAction" : null,
      "pageActionReference" : null,
      "dataSheetReference" : null,
      "testStepGroup" : null,
      "contextId" : null,
      "hasBreakpoint" : false,
      "isDisabled" : false
    } ],
    "description" : null
  }, {
    "id" : "bc493543-35e7-4945-81ba-6a7d82ad97b7",
    "title" : "Delen",
    "variableList" : [ {
      "id" : "70cea80f-af30-4790-96f2-051ba2435369",
      "name" : "number1",
      "allowedOptions" : [ ],
      "type" : "TEXT"
    }, {
      "id" : "e9f50c95-5688-415a-a2e7-2fd1b2eb6eba",
      "name" : "number2",
      "allowedOptions" : [ ],
      "type" : "TEXT"
    } ],
    "steps" : [ {
      "version" : "3.0.4",
      "result" : null,
      "message" : null,
      "executionTimeMs" : 0,
      "databaseAction" : null,
      "webAction" : {
        "actionName" : "Keyboard",
        "subAction" : "Type text",
        "options" : [ {
          "name" : "Clear field",
          "value" : true
        }, {
          "name" : "Interval between keystrokes",
          "value" : 1
        } ],
        "object" : {
          "type" : "pageObjectReference",
          "object" : "",
          "pageScannerQuery" : null,
          "pageObjectReference" : {
            "pageId" : "q741333qrqx2",
            "objectId" : "548a3101-63c2-410d-8e75-e87c7bc20309"
          }
        },
        "testdata" : {
          "data" : "${number1}",
          "type" : "text"
        },
        "takeScreenshot" : "0",
        "screenshot" : null
      },
      "apiAction" : null,
      "pageActionReference" : null,
      "dataSheetReference" : null,
      "testStepGroup" : null,
      "contextId" : null,
      "hasBreakpoint" : false,
      "isDisabled" : false
    }, {
      "version" : "3.0.4",
      "result" : null,
      "message" : null,
      "executionTimeMs" : 0,
      "databaseAction" : null,
      "webAction" : {
        "actionName" : "Keyboard",
        "subAction" : "Type text",
        "options" : [ {
          "name" : "Clear field",
          "value" : true
        }, {
          "name" : "Interval between keystrokes",
          "value" : 1
        } ],
        "object" : {
          "type" : "pageObjectReference",
          "object" : "",
          "pageScannerQuery" : null,
          "pageObjectReference" : {
            "pageId" : "q741333qrqx2",
            "objectId" : "5b876775-aacb-439d-962b-8d8c28f01d0b"
          }
        },
        "testdata" : {
          "data" : "${number2}",
          "type" : "text"
        },
        "takeScreenshot" : "0",
        "screenshot" : null
      },
      "apiAction" : null,
      "pageActionReference" : null,
      "dataSheetReference" : null,
      "testStepGroup" : null,
      "contextId" : null,
      "hasBreakpoint" : false,
      "isDisabled" : false
    }, {
      "version" : "3.0.4",
      "result" : null,
      "message" : null,
      "executionTimeMs" : 0,
      "databaseAction" : null,
      "webAction" : {
        "actionName" : "Mouse",
        "subAction" : "Click",
        "options" : [ ],
        "object" : {
          "type" : "pageObjectReference",
          "object" : "",
          "pageScannerQuery" : null,
          "pageObjectReference" : {
            "pageId" : "q741333qrqx2",
            "objectId" : "d2d1dcda-c9e8-41e6-8976-fc1edc2b15db"
          }
        },
        "testdata" : {
          "data" : "",
          "type" : "text"
        },
        "takeScreenshot" : "0",
        "screenshot" : null
      },
      "apiAction" : null,
      "pageActionReference" : null,
      "dataSheetReference" : null,
      "testStepGroup" : null,
      "contextId" : null,
      "hasBreakpoint" : false,
      "isDisabled" : false
    } ],
    "description" : null
  }, {
    "id" : "c7114acb-169d-4c94-9ebd-47b42f4898a7",
    "title" : "vermenigvuldigen",
    "variableList" : [ {
      "id" : "0dcc2007-1ea2-4abf-9c97-9f61d7341e51",
      "name" : "number1",
      "allowedOptions" : [ ],
      "type" : "TEXT"
    }, {
      "id" : "9136a917-7e42-4d84-8526-63ccb2cadb5c",
      "name" : "number2",
      "allowedOptions" : [ ],
      "type" : "TEXT"
    } ],
    "steps" : [ {
      "version" : "3.0.4",
      "result" : null,
      "message" : null,
      "executionTimeMs" : 0,
      "databaseAction" : null,
      "webAction" : {
        "actionName" : "Keyboard",
        "subAction" : "Type text",
        "options" : [ {
          "name" : "Clear field",
          "value" : true
        }, {
          "name" : "Interval between keystrokes",
          "value" : 1
        } ],
        "object" : {
          "type" : "pageObjectReference",
          "object" : "",
          "pageScannerQuery" : null,
          "pageObjectReference" : {
            "pageId" : "q741333qrqx2",
            "objectId" : "548a3101-63c2-410d-8e75-e87c7bc20309"
          }
        },
        "testdata" : {
          "data" : "${number1}",
          "type" : "text"
        },
        "takeScreenshot" : "0",
        "screenshot" : null
      },
      "apiAction" : null,
      "pageActionReference" : null,
      "dataSheetReference" : null,
      "testStepGroup" : null,
      "contextId" : null,
      "hasBreakpoint" : false,
      "isDisabled" : false
    }, {
      "version" : "3.0.4",
      "result" : null,
      "message" : null,
      "executionTimeMs" : 0,
      "databaseAction" : null,
      "webAction" : {
        "actionName" : "Keyboard",
        "subAction" : "Type text",
        "options" : [ {
          "name" : "Clear field",
          "value" : true
        }, {
          "name" : "Interval between keystrokes",
          "value" : 1
        } ],
        "object" : {
          "type" : "pageObjectReference",
          "object" : "",
          "pageScannerQuery" : null,
          "pageObjectReference" : {
            "pageId" : "q741333qrqx2",
            "objectId" : "5b876775-aacb-439d-962b-8d8c28f01d0b"
          }
        },
        "testdata" : {
          "data" : "${number2}",
          "type" : "text"
        },
        "takeScreenshot" : "0",
        "screenshot" : null
      },
      "apiAction" : null,
      "pageActionReference" : null,
      "dataSheetReference" : null,
      "testStepGroup" : null,
      "contextId" : null,
      "hasBreakpoint" : false,
      "isDisabled" : false
    }, {
      "version" : "3.0.4",
      "result" : null,
      "message" : null,
      "executionTimeMs" : 0,
      "databaseAction" : null,
      "webAction" : {
        "actionName" : "Mouse",
        "subAction" : "Click",
        "options" : [ ],
        "object" : {
          "type" : "pageObjectReference",
          "object" : "",
          "pageScannerQuery" : null,
          "pageObjectReference" : {
            "pageId" : "q741333qrqx2",
            "objectId" : "92e0fa59-48cc-47da-ac12-768bb5a30762"
          }
        },
        "testdata" : {
          "data" : "",
          "type" : "text"
        },
        "takeScreenshot" : "0",
        "screenshot" : null
      },
      "apiAction" : null,
      "pageActionReference" : null,
      "dataSheetReference" : null,
      "testStepGroup" : null,
      "contextId" : null,
      "hasBreakpoint" : false,
      "isDisabled" : false
    } ],
    "description" : null
  }, {
    "id" : "456924dd-85ae-47fd-80a5-b23a4076b188",
    "title" : "Aftrekken",
    "variableList" : [ {
      "id" : "fe4922f3-13f8-4876-9c11-e6231c93f8bd",
      "name" : "number1",
      "allowedOptions" : [ ],
      "type" : "TEXT"
    }, {
      "id" : "71ce3043-6ce0-4eb3-8c46-30b8506213e2",
      "name" : "number2",
      "allowedOptions" : [ ],
      "type" : "TEXT"
    } ],
    "steps" : [ {
      "version" : "3.0.4",
      "result" : null,
      "message" : null,
      "executionTimeMs" : 0,
      "databaseAction" : null,
      "webAction" : {
        "actionName" : "Keyboard",
        "subAction" : "Type text",
        "options" : [ {
          "name" : "Clear field",
          "value" : true
        }, {
          "name" : "Interval between keystrokes",
          "value" : 1
        } ],
        "object" : {
          "type" : "pageObjectReference",
          "object" : "",
          "pageScannerQuery" : null,
          "pageObjectReference" : {
            "pageId" : "q741333qrqx2",
            "objectId" : "548a3101-63c2-410d-8e75-e87c7bc20309"
          }
        },
        "testdata" : {
          "data" : "${number1}",
          "type" : "text"
        },
        "takeScreenshot" : "0",
        "screenshot" : null
      },
      "apiAction" : null,
      "pageActionReference" : null,
      "dataSheetReference" : null,
      "testStepGroup" : null,
      "contextId" : null,
      "hasBreakpoint" : false,
      "isDisabled" : false
    }, {
      "version" : "3.0.4",
      "result" : null,
      "message" : null,
      "executionTimeMs" : 0,
      "databaseAction" : null,
      "webAction" : {
        "actionName" : "Keyboard",
        "subAction" : "Type text",
        "options" : [ {
          "name" : "Clear field",
          "value" : true
        }, {
          "name" : "Interval between keystrokes",
          "value" : 1
        } ],
        "object" : {
          "type" : "pageObjectReference",
          "object" : "",
          "pageScannerQuery" : null,
          "pageObjectReference" : {
            "pageId" : "q741333qrqx2",
            "objectId" : "5b876775-aacb-439d-962b-8d8c28f01d0b"
          }
        },
        "testdata" : {
          "data" : "${number2}",
          "type" : "text"
        },
        "takeScreenshot" : "0",
        "screenshot" : null
      },
      "apiAction" : null,
      "pageActionReference" : null,
      "dataSheetReference" : null,
      "testStepGroup" : null,
      "contextId" : null,
      "hasBreakpoint" : false,
      "isDisabled" : false
    }, {
      "version" : "3.0.4",
      "result" : null,
      "message" : null,
      "executionTimeMs" : 0,
      "databaseAction" : null,
      "webAction" : {
        "actionName" : "Mouse",
        "subAction" : "Click",
        "options" : [ ],
        "object" : {
          "type" : "pageObjectReference",
          "object" : "",
          "pageScannerQuery" : null,
          "pageObjectReference" : {
            "pageId" : "q741333qrqx2",
            "objectId" : "2c06465a-7099-440e-8885-2921b6d2e2db"
          }
        },
        "testdata" : {
          "data" : "",
          "type" : "text"
        },
        "takeScreenshot" : "0",
        "screenshot" : null
      },
      "apiAction" : null,
      "pageActionReference" : null,
      "dataSheetReference" : null,
      "testStepGroup" : null,
      "contextId" : null,
      "hasBreakpoint" : false,
      "isDisabled" : false
    } ],
    "description" : null
  } ],
  "foreignKey" : null
}